<?xml version="1.0" encoding="UTF-8" standalone="no"?>
<!-- Created with Inkscape (http://www.inkscape.org/) -->

<svg
   xmlns:dc="http://purl.org/dc/elements/1.1/"
   xmlns:cc="http://creativecommons.org/ns#"
   xmlns:rdf="http://www.w3.org/1999/02/22-rdf-syntax-ns#"
   xmlns:svg="http://www.w3.org/2000/svg"
   xmlns="http://www.w3.org/2000/svg"
   xmlns:sodipodi="http://sodipodi.sourceforge.net/DTD/sodipodi-0.dtd"
   xmlns:inkscape="http://www.inkscape.org/namespaces/inkscape"
   version="1.1"
   id="svg1303"
   xml:space="preserve"
   width="1235.532"
   height="282.04065"
   viewBox="0 0 1235.532 282.04065"
   sodipodi:docname="logo-uib-horizontal-40anys.svg"
   inkscape:version="0.92.2 (5c3e80d, 2017-08-06)"><metadata
     id="metadata1309"><rdf:RDF><cc:Work
         rdf:about=""><dc:format>image/svg+xml</dc:format><dc:type
           rdf:resource="http://purl.org/dc/dcmitype/StillImage" /><dc:title></dc:title></cc:Work></rdf:RDF></metadata><defs
     id="defs1307"><clipPath
       clipPathUnits="userSpaceOnUse"
       id="clipPath1323"><path
         d="M 0,595.28 H 1275.591 V 0 H 0 Z"
         id="path1321"
         inkscape:connector-curvature="0" /></clipPath></defs><sodipodi:namedview
     pagecolor="#ffffff"
     bordercolor="#666666"
     borderopacity="1"
     objecttolerance="10"
     gridtolerance="10"
     guidetolerance="10"
     inkscape:pageopacity="0"
     inkscape:pageshadow="2"
     inkscape:window-width="1920"
     inkscape:window-height="1017"
     id="namedview1305"
     showgrid="false"
     inkscape:zoom="0.84666699"
     inkscape:cx="706.07115"
     inkscape:cy="139.35094"
     inkscape:window-x="-8"
     inkscape:window-y="-8"
     inkscape:window-maximized="1"
     inkscape:current-layer="g1311" /><g
     id="g1311"
     inkscape:groupmode="layer"
     inkscape:label="LOGO UIB HORIZONTAL + 40 anys"
     transform="matrix(1.3333333,0,0,-1.3333333,-244.43993,539.54305)"><path
       d="m 436.86,193.155 h -2.373 v 211.502 h 2.373 z"
       style="fill:#005db9;fill-opacity:1;fill-rule:nonzero;stroke:none"
       id="path1313"
       inkscape:connector-curvature="0" /><path
       d="m 887.849,193.155 h -2.373 v 211.502 h 2.373 z"
       style="fill:#005db9;fill-opacity:1;fill-rule:nonzero;stroke:none"
       id="path1315"
       inkscape:connector-curvature="0" /><g
       id="g1317"><g
         id="g1319"
         clip-path="url(#clipPath1323)"><g
           id="g1325"
           transform="translate(611.2886,248.8047)"><path
             d="m 0,0 4.135,-0.765 v -1.339 c -1.923,0.096 -4.038,0.144 -6.01,0.144 -2.02,0 -4.135,-0.048 -6.011,-0.144 v 1.339 L -3.798,0 v 27.357 l -4.088,0.765 v 1.339 c 1.876,-0.094 3.991,-0.142 6.011,-0.142 1.972,0 4.087,0.048 6.01,0.142 V 28.122 L 0,27.357 Z"
             style="fill:#231f20;fill-opacity:1;fill-rule:nonzero;stroke:none"
             id="path1327"
             inkscape:connector-curvature="0" /></g><g
           id="g1329"
           transform="translate(626.3408,248.8047)"><path
             d="m 0,0 4.086,-0.765 v -1.339 c -3.749,0.191 -8.078,0.191 -11.876,0 v 1.339 L -3.654,0 v 28.696 l -3.656,0.765 v 1.34 c 2.261,0 4.617,0.191 6.829,0.525 H 0 Z"
             style="fill:#231f20;fill-opacity:1;fill-rule:nonzero;stroke:none"
             id="path1331"
             inkscape:connector-curvature="0" /></g><g
           id="g1333"
           transform="translate(640.0449,248.8047)"><path
             d="m 0,0 4.088,-0.765 v -1.339 c -3.752,0.191 -8.079,0.191 -11.878,0 v 1.339 L -3.655,0 v 28.696 l -3.655,0.765 v 1.34 c 2.26,0 4.617,0.191 6.829,0.525 H 0 Z"
             style="fill:#231f20;fill-opacity:1;fill-rule:nonzero;stroke:none"
             id="path1335"
             inkscape:connector-curvature="0" /></g><g
           id="g1337"
           transform="translate(650.1904,260.4268)"><path
             d="m 0,0 11.442,0.766 c 0,0 0.146,0.381 0.146,2.007 0,3.302 -1.972,5.024 -4.376,5.024 C 3.268,7.797 0.671,4.304 0,0 m -3.752,-2.728 c 0,8.133 5.482,11.958 11.204,11.958 3.847,0 7.935,-1.626 7.935,-7.459 L 14.713,-1.196 H -0.193 l -0.048,-0.861 c 0,-6.17 2.789,-9.279 7.886,-9.279 2.98,0 5.29,0.671 7.308,1.867 l 0.481,-1.147 c -1.394,-1.197 -4.616,-3.588 -8.943,-3.588 -6.781,0 -10.243,5.022 -10.243,11.476"
             style="fill:#231f20;fill-opacity:1;fill-rule:nonzero;stroke:none"
             id="path1339"
             inkscape:connector-curvature="0" /></g><g
           id="g1341"
           transform="translate(681.3965,252.2002)"><path
             d="m 0,0 c 0,3.109 -2.885,3.539 -5.482,4.545 -3.556,1.386 -6.395,2.392 -6.395,6.455 0,3.828 3.029,6.457 7.741,6.457 2.163,0 4.569,-0.575 6.396,-1.482 l -1.394,-5.882 -1.394,0.239 -0.338,4.782 c 0,0 -0.962,0.909 -3.511,0.909 -2.739,0 -4.325,-1.435 -4.325,-3.827 0,-3.109 2.74,-3.444 5.239,-4.304 3.414,-1.197 7.116,-2.393 7.116,-6.697 0,-4.542 -4.231,-7.173 -8.558,-7.173 -4.858,0 -6.972,1.483 -6.972,1.483 l 1.396,6.121 1.393,-0.237 0.337,-4.785 c 0,0 1.009,-1.147 3.895,-1.147 C -1.635,-4.543 0,-2.63 0,0"
             style="fill:#231f20;fill-opacity:1;fill-rule:nonzero;stroke:none"
             id="path1343"
             inkscape:connector-curvature="0" /></g><g
           id="g1345"
           transform="translate(707.793,263.1045)"><path
             d="m 0,0 v -14.539 h 4.907 c 5.77,0 7.404,3.492 7.404,7.269 0,4.114 -2.5,7.27 -8.8,7.27 z m 2.597,1.866 c 6.349,0 8.32,1.531 8.32,5.595 0,3.731 -1.587,5.836 -6.926,5.836 H 0 V 1.866 Z M 8.8,1.149 c 5.579,-1.531 7.551,-5.023 7.551,-8.657 0,-5.069 -3.416,-8.993 -10.196,-8.993 -3.46,0 -5.962,0.241 -8.461,0.241 -2.308,0 -3.318,0 -5.579,-0.144 v 1.34 l 4.04,0.764 v 27.358 l -4.04,0.764 v 1.34 c 1.396,-0.095 2.789,-0.142 4.185,-0.142 2.549,0 4.904,0.189 8.126,0.189 6.877,0 10.577,-2.486 10.577,-7.27 0,-3.778 -2.692,-5.69 -6.203,-6.79"
             style="fill:#231f20;fill-opacity:1;fill-rule:nonzero;stroke:none"
             id="path1347"
             inkscape:connector-curvature="0" /></g><g
           id="g1349"
           transform="translate(734.3379,255.7393)"><path
             d="m 0,0 c -2.598,0 -3.221,-2.008 -3.221,-3.587 0,-1.962 0.817,-3.49 3.124,-3.49 3.413,0 5.435,1.768 6.011,2.296 V 0.286 C 5.578,0.192 4.809,-0.047 3.605,-0.047 1.73,-0.047 0.961,0 0,0 m 5.914,6.17 c 0,3.827 -1.587,5.835 -4.376,5.835 -2.307,0 -3.799,-1.434 -3.799,-1.434 L -2.598,5.645 -3.895,5.31 -6.058,9.423 c 1.971,2.295 5.914,4.495 10.001,4.495 3.703,0 5.721,-2.392 5.721,-6.457 V -6.935 l 3.511,-0.764 v -1.34 c -1.057,0.049 -2.067,0.097 -3.078,0.097 -1.249,0 -2.451,-0.048 -3.655,-0.097 l -0.528,3.061 c -1.01,-1.147 -3.511,-3.539 -7.021,-3.539 -3.606,0 -5.625,2.487 -5.625,6.074 0,2.966 1.97,5.309 5.193,5.309 2.644,0 4.906,-0.86 7.453,-0.621 z"
             style="fill:#231f20;fill-opacity:1;fill-rule:nonzero;stroke:none"
             id="path1351"
             inkscape:connector-curvature="0" /></g><g
           id="g1353"
           transform="translate(757.9482,248.8047)"><path
             d="m 0,0 4.084,-0.765 v -1.339 c -3.748,0.191 -8.076,0.191 -11.875,0 v 1.339 L -3.656,0 v 28.696 l -3.654,0.765 v 1.34 c 2.261,0 4.617,0.191 6.83,0.525 H 0 Z"
             style="fill:#231f20;fill-opacity:1;fill-rule:nonzero;stroke:none"
             id="path1355"
             inkscape:connector-curvature="0" /></g><g
           id="g1357"
           transform="translate(768.0937,260.4268)"><path
             d="m 0,0 11.444,0.766 c 0,0 0.144,0.381 0.144,2.007 0,3.302 -1.973,5.024 -4.377,5.024 C 3.267,7.797 0.671,4.304 0,0 m -3.753,-2.728 c 0,8.133 5.482,11.958 11.204,11.958 3.847,0 7.938,-1.626 7.938,-7.459 L 14.712,-1.196 H -0.194 l -0.047,-0.861 c 0,-6.17 2.789,-9.279 7.886,-9.279 2.982,0 5.29,0.671 7.307,1.867 l 0.482,-1.147 c -1.394,-1.197 -4.617,-3.588 -8.943,-3.588 -6.779,0 -10.244,5.022 -10.244,11.476"
             style="fill:#231f20;fill-opacity:1;fill-rule:nonzero;stroke:none"
             id="path1359"
             inkscape:connector-curvature="0" /></g><g
           id="g1361"
           transform="translate(793.7207,255.7393)"><path
             d="m 0,0 c -2.594,0 -3.22,-2.008 -3.22,-3.587 0,-1.962 0.816,-3.49 3.125,-3.49 3.414,0 5.433,1.768 6.011,2.296 V 0.286 C 5.579,0.192 4.808,-0.047 3.607,-0.047 1.731,-0.047 0.962,0 0,0 m 5.916,6.17 c 0,3.827 -1.588,5.835 -4.375,5.835 -2.309,0 -3.8,-1.434 -3.8,-1.434 L -2.594,5.645 -3.895,5.31 -6.057,9.423 c 1.971,2.295 5.915,4.495 10.001,4.495 3.702,0 5.722,-2.392 5.722,-6.457 V -6.935 l 3.511,-0.764 v -1.34 c -1.06,0.049 -2.068,0.097 -3.077,0.097 -1.25,0 -2.454,-0.048 -3.656,-0.097 l -0.528,3.061 c -1.011,-1.147 -3.512,-3.539 -7.021,-3.539 -3.607,0 -5.626,2.487 -5.626,6.074 0,2.966 1.97,5.309 5.194,5.309 2.645,0 4.904,-0.86 7.453,-0.621 z"
             style="fill:#231f20;fill-opacity:1;fill-rule:nonzero;stroke:none"
             id="path1363"
             inkscape:connector-curvature="0" /></g><g
           id="g1365"
           transform="translate(823.2939,267.3614)"><path
             d="m 0,0 c -3.893,0 -5.963,-3.872 -5.963,-3.872 v -14.685 l 5.051,-0.764 v -1.34 c -3.752,0.191 -9.042,0.191 -12.839,0 v 1.34 l 4.134,0.764 v 18.224 l -3.654,0.762 V 1.77 c 2.262,0 4.616,0.192 6.828,0.526 h 0.48 v -4.4 h 0.098 c 0.047,-0.048 2.26,4.4 6.682,4.4 2.165,0 3.031,-0.956 3.031,-0.956 L 2.02,-4.734 0.577,-4.592 Z"
             style="fill:#231f20;fill-opacity:1;fill-rule:nonzero;stroke:none"
             id="path1367"
             inkscape:connector-curvature="0" /></g><g
           id="g1369"
           transform="translate(842,252.2002)"><path
             d="m 0,0 c 0,3.109 -2.886,3.539 -5.484,4.545 -3.556,1.386 -6.392,2.392 -6.392,6.455 0,3.828 3.027,6.457 7.738,6.457 2.166,0 4.571,-0.575 6.396,-1.482 l -1.394,-5.882 -1.394,0.239 -0.335,4.782 c 0,0 -0.961,0.909 -3.513,0.909 -2.74,0 -4.325,-1.435 -4.325,-3.827 0,-3.109 2.739,-3.444 5.241,-4.304 3.415,-1.197 7.115,-2.393 7.115,-6.697 0,-4.542 -4.23,-7.173 -8.558,-7.173 -4.858,0 -6.971,1.483 -6.971,1.483 l 1.396,6.121 1.391,-0.237 0.337,-4.785 c 0,0 1.01,-1.147 3.896,-1.147 C -1.639,-4.543 0,-2.63 0,0"
             style="fill:#231f20;fill-opacity:1;fill-rule:nonzero;stroke:none"
             id="path1371"
             inkscape:connector-curvature="0" /></g><g
           id="g1373"
           transform="translate(493.3628,251.1006)"><path
             d="m 0,0 v 10.187 c 0,5.501 -3.174,6.936 -5.481,6.936 -5,0 -7.501,-3.827 -7.501,-10.284 0,-6.218 2.98,-9.325 6.826,-9.325 2.308,0 4.809,1.243 6.156,2.486 M 3.655,-2.152 8.222,-2.774 V -4.112 C 5.482,-4.16 3.078,-4.497 0.48,-4.878 H 0 v 3.348 h -0.193 c 0,0 -2.789,-3.348 -7.598,-3.348 -5.914,0 -9.086,4.544 -9.086,11.717 0,7.653 5.721,11.718 11.636,11.718 1.683,0 3.894,-0.479 5.241,-1.434 V 26.4 l -3.655,0.766 v 1.339 c 2.308,0 4.617,0.191 6.877,0.525 h 0.433 z"
             style="fill:#231f20;fill-opacity:1;fill-rule:nonzero;stroke:none"
             id="path1375"
             inkscape:connector-curvature="0" /></g><g
           id="g1377"
           transform="translate(507.6445,260.4268)"><path
             d="m 0,0 11.445,0.766 c 0,0 0.144,0.381 0.144,2.007 0,3.302 -1.973,5.024 -4.377,5.024 C 3.269,7.797 0.673,4.304 0,0 m -3.75,-2.728 c 0,8.133 5.481,11.958 11.202,11.958 3.847,0 7.935,-1.626 7.935,-7.459 L 14.714,-1.196 H -0.191 l -0.05,-0.861 c 0,-6.17 2.789,-9.279 7.886,-9.279 2.982,0 5.29,0.671 7.309,1.867 l 0.481,-1.147 c -1.393,-1.197 -4.616,-3.588 -8.943,-3.588 -6.78,0 -10.242,5.022 -10.242,11.476"
             style="fill:#231f20;fill-opacity:1;fill-rule:nonzero;stroke:none"
             id="path1379"
             inkscape:connector-curvature="0" /></g><g
           id="g1381"
           transform="translate(545.1016,248.8047)"><path
             d="m 0,0 4.088,-0.765 v -1.339 c -3.749,0.191 -8.078,0.191 -11.877,0 v 1.339 L -3.654,0 v 28.696 l -3.654,0.765 v 1.34 c 2.259,0 4.617,0.191 6.829,0.525 H 0 Z"
             style="fill:#231f20;fill-opacity:1;fill-rule:nonzero;stroke:none"
             id="path1383"
             inkscape:connector-curvature="0" /></g><g
           id="g1385"
           transform="translate(555.2471,260.4268)"><path
             d="m 0,0 11.445,0.766 c 0,0 0.145,0.381 0.145,2.007 0,3.302 -1.973,5.024 -4.377,5.024 C 3.271,7.797 0.674,4.304 0,0 m -3.75,-2.728 c 0,8.133 5.481,11.958 11.204,11.958 3.847,0 7.933,-1.626 7.933,-7.459 L 14.716,-1.196 H -0.192 l -0.049,-0.861 c 0,-6.17 2.79,-9.279 7.887,-9.279 2.981,0 5.289,0.671 7.309,1.867 l 0.481,-1.147 c -1.395,-1.197 -4.616,-3.588 -8.944,-3.588 -6.78,0 -10.242,5.022 -10.242,11.476"
             style="fill:#231f20;fill-opacity:1;fill-rule:nonzero;stroke:none"
             id="path1387"
             inkscape:connector-curvature="0" /></g><g
           id="g1389"
           transform="translate(586.4551,252.2002)"><path
             d="m 0,0 c 0,3.109 -2.885,3.539 -5.482,4.545 -3.558,1.386 -6.394,2.392 -6.394,6.455 0,3.828 3.027,6.457 7.741,6.457 2.163,0 4.569,-0.575 6.396,-1.482 l -1.396,-5.882 -1.393,0.239 -0.338,4.782 c 0,0 -0.961,0.909 -3.51,0.909 -2.74,0 -4.327,-1.435 -4.327,-3.827 0,-3.109 2.741,-3.444 5.241,-4.304 3.414,-1.197 7.116,-2.393 7.116,-6.697 0,-4.542 -4.231,-7.173 -8.556,-7.173 -4.86,0 -6.974,1.483 -6.974,1.483 l 1.394,6.121 1.394,-0.237 0.338,-4.785 c 0,0 1.008,-1.147 3.895,-1.147 C -1.634,-4.543 0,-2.63 0,0"
             style="fill:#231f20;fill-opacity:1;fill-rule:nonzero;stroke:none"
             id="path1391"
             inkscape:connector-curvature="0" /></g><g
           id="g1393"
           transform="translate(499.3437,292.7657)"><path
             d="M 0,0 C -14.184,0 -22.842,5.442 -22.842,21.604 V 55.827 H -9.729 V 22.1 c 0,-7.999 3.298,-11.132 9.978,-11.132 6.184,0 9.4,3.216 9.4,11.132 v 33.067 l 13.193,2.144 V 21.604 C 22.842,5.607 14.102,0 0,0"
             style="fill:#231f20;fill-opacity:1;fill-rule:nonzero;stroke:none"
             id="path1395"
             inkscape:connector-curvature="0" /></g><g
           id="g1397"
           transform="translate(552.4111,294.167)"><path
             d="m 0,0 v 25.234 c 0,3.875 -1.237,5.69 -4.205,5.69 -3.629,0 -6.433,-4.041 -6.35,-4.123 V 0 h -13.441 v 38.345 l 10.554,2.144 2.062,-4.536 c 0,0.083 4.454,4.536 11.463,4.536 6.762,0 13.358,-3.134 13.358,-12.864 L 13.441,0 Z"
             style="fill:#231f20;fill-opacity:1;fill-rule:nonzero;stroke:none"
             id="path1399"
             inkscape:connector-curvature="0" /></g><g
           id="g1401"
           transform="translate(580.2847,338.5323)"><path
             d="m 0,0 c -4.453,0 -6.844,2.721 -6.844,6.514 0,3.794 2.391,6.514 6.844,6.514 4.536,0 6.845,-2.72 6.845,-6.514 C 6.845,2.721 4.536,0 0,0 M -7.092,-44.365 V -6.021 L 6.35,-3.876 v -40.489 z"
             style="fill:#231f20;fill-opacity:1;fill-rule:nonzero;stroke:none"
             id="path1403"
             inkscape:connector-curvature="0" /></g><g
           id="g1405"
           transform="translate(616.3208,294.167)"><path
             d="m 0,0 h -13.276 l -12.947,38.345 12.535,2.144 8.165,-25.81 7.586,24.656 h 12.864 z"
             style="fill:#231f20;fill-opacity:1;fill-rule:nonzero;stroke:none"
             id="path1407"
             inkscape:connector-curvature="0" /></g><g
           id="g1409"
           transform="translate(643.6895,317.9991)"><path
             d="M 0,0 H 11.297 C 11.215,5.689 9.566,8.246 6.104,8.246 2.557,8.246 0.248,5.442 0,0 m -0.246,-6.515 c 0,-5.36 2.557,-9.071 8.492,-9.071 6.68,0 11.793,2.887 11.793,2.969 l 3.546,-8.74 c 0,0 -7.34,-3.794 -17.399,-3.794 -14.184,0 -19.957,7.587 -19.957,20.945 0,14.184 8.577,20.863 20.285,20.863 12.783,0 16.823,-8.247 17.071,-18.636 l -1.321,-4.536 z"
             style="fill:#231f20;fill-opacity:1;fill-rule:nonzero;stroke:none"
             id="path1411"
             inkscape:connector-curvature="0" /></g><g
           id="g1413"
           transform="translate(696.5488,323.7715)"><path
             d="m 0,0 c 0,0 -1.568,0.741 -3.547,0.741 -5.029,0 -7.256,-3.958 -7.256,-3.958 V -29.604 H -24.244 V 8.74 l 12.369,2.145 0.33,-5.856 c 0.988,2.722 5.03,5.856 9.4,5.856 3.382,0 5.362,-1.238 5.362,-1.238 z"
             style="fill:#231f20;fill-opacity:1;fill-rule:nonzero;stroke:none"
             id="path1415"
             inkscape:connector-curvature="0" /></g><g
           id="g1417"
           transform="translate(714.0312,292.8477)"><path
             d="m 0,0 c -9.4,0 -14.925,2.969 -15.749,3.464 l 2.968,8.823 c 0.824,-0.577 6.02,-3.711 11.297,-3.711 3.049,0 4.617,1.403 4.617,3.546 0,5.525 -17.646,5.113 -17.646,17.647 0,8.411 7.42,12.04 16.41,12.04 9.482,0 14.101,-2.886 14.101,-2.886 l -3.135,-8.824 c -0.082,0.083 -4.369,3.133 -10.224,3.133 -3.051,0 -4.618,-1.401 -4.618,-3.463 0,-2.226 2.638,-3.381 6.266,-4.866 C 11.709,22.018 15.586,19.956 15.586,12.04 15.586,4.7 9.729,0 0,0"
             style="fill:#231f20;fill-opacity:1;fill-rule:nonzero;stroke:none"
             id="path1419"
             inkscape:connector-curvature="0" /></g><g
           id="g1421"
           transform="translate(740.4141,338.5323)"><path
             d="m 0,0 c -4.452,0 -6.846,2.721 -6.846,6.514 0,3.794 2.394,6.514 6.846,6.514 4.535,0 6.846,-2.72 6.846,-6.514 C 6.846,2.721 4.535,0 0,0 m -7.09,-44.365 v 38.344 l 13.44,2.145 v -40.489 z"
             style="fill:#231f20;fill-opacity:1;fill-rule:nonzero;stroke:none"
             id="path1423"
             inkscape:connector-curvature="0" /></g><g
           id="g1425"
           transform="translate(779.1787,297.1358)"><path
             d="m 0,0 c 0,0 -4.37,-4.288 -12.948,-4.288 -5.36,0 -10.39,2.722 -10.39,10.143 v 23.254 h -5.854 l 1.486,6.432 4.368,0.825 1.403,9.895 11.543,1.32 V 36.366 h 9.073 v -7.257 h -9.073 V 9.318 c 0,-2.885 0.827,-3.711 2.64,-3.711 1.402,0 3.216,0.826 4.454,1.733 z"
             style="fill:#231f20;fill-opacity:1;fill-rule:nonzero;stroke:none"
             id="path1427"
             inkscape:connector-curvature="0" /></g><g
           id="g1429"
           transform="translate(801.8555,310.7422)"><path
             d="m 0,0 c -8.41,-0.082 -9.236,-4.453 -9.236,-6.515 0,-2.226 0.908,-3.793 3.382,-3.793 3.545,0 5.854,3.628 5.854,3.628 z m 2.969,-16.575 -1.485,4.041 c -0.328,-0.33 -4.123,-5.361 -11.957,-5.361 -6.925,0 -11.131,3.876 -11.131,10.226 0,3.958 0.988,14.349 21.604,14.349 v 3.298 c 0,3.545 -2.557,4.618 -6.349,4.618 -5.442,0 -10.637,-3.216 -10.637,-3.216 l -3.382,8.163 c 0.331,0.33 6.597,4.371 17.317,4.371 10.391,0 16.41,-4.865 16.41,-13.771 v -26.718 z"
             style="fill:#231f20;fill-opacity:1;fill-rule:nonzero;stroke:none"
             id="path1431"
             inkscape:connector-curvature="0" /></g><g
           id="g1433"
           transform="translate(845.8096,297.1358)"><path
             d="m 0,0 c 0,0 -4.37,-4.288 -12.946,-4.288 -5.359,0 -10.391,2.722 -10.391,10.143 v 23.254 h -5.853 l 1.484,6.432 4.369,0.825 1.402,9.895 11.545,1.32 V 36.366 h 9.072 V 29.109 H -10.39 V 9.318 c 0,-2.885 0.826,-3.711 2.639,-3.711 1.402,0 3.217,0.826 4.453,1.733 z"
             style="fill:#231f20;fill-opacity:1;fill-rule:nonzero;stroke:none"
             id="path1435"
             inkscape:connector-curvature="0" /></g><g
           id="g1437"
           transform="translate(319.9058,299.5196)"><path
             d="m 0,0 h -2.566 v -21.459 h 4.725 c 6.408,0 8.279,4.824 8.279,10.586 C 10.438,-4.535 7.125,0 0,0"
             style="fill:#005db9;fill-opacity:1;fill-rule:nonzero;stroke:none"
             id="path1439"
             inkscape:connector-curvature="0" /></g><g
           id="g1441"
           transform="translate(323.5747,274.8203)"><path
             d="m 0,0 c -5.615,0 -8.323,0.361 -13.29,0.361 -3.384,0 -4.755,-0.143 -7.561,-0.217 v 2.451 l 4.681,1.224 v 40.18 l -4.681,1.223 v 2.449 c 0.503,-0.071 3.886,-0.216 7.561,-0.216 6.262,0.073 6.668,0.288 11.491,0.288 10.872,0 16.776,-3.67 16.776,-10.873 0,-5.762 -4.174,-8.643 -9.72,-10.224 v -0.147 c 8.639,-2.23 11.81,-7.487 11.81,-13.033 C 17.067,5.617 11.955,0 0,0 m -34.307,-24.192 c -6.243,-4.165 -6.243,-9.019 -11.513,-8.466 l -3.748,9.853 c -3.189,-3.193 -2.77,-5.139 -6.241,-9.435 -7.629,5.133 4.44,13.595 7.49,18.311 3.609,-5.826 3.192,-6.1 5.274,-9.294 2.771,-4.16 8.876,13.592 11.373,9.989 3.749,-16.651 10.268,-12.764 21.504,-7.491 8.043,-5.966 -27.193,-22.754 -24.139,-3.467 m -35.046,23.779 c -12.241,0 -17.311,7.679 -17.311,20.091 V 43.86 l -4.239,1.363 v 2.439 c 2.052,-0.07 5.426,-0.218 8.601,-0.218 3.308,0 7.01,0.075 9.063,0.218 v -2.439 l -4.299,-1.435 v -23.39 c 0,-11.482 2.759,-16.528 9.97,-16.528 8.014,0 10.828,6.123 10.828,16.528 V 43.86 l -6.084,1.363 v 2.439 c 2.118,-0.07 5.034,-0.218 8.078,-0.218 3.107,0 5.421,0.075 7.541,0.218 V 45.223 L -53.026,43.86 V 19.678 c 0,-12.915 -5.813,-20.091 -16.327,-20.091 m 44.522,2.997 V 0.139 c -2.232,0.141 -5.973,0.212 -9.502,0.212 -3.458,0 -7.562,-0.14 -9.794,-0.212 v 2.445 l 4.678,1.442 v 39.82 l -4.678,1.368 v 2.45 c 2.232,-0.144 5.975,-0.217 9.432,-0.217 3.529,0 7.632,0.073 9.864,0.217 v -2.45 l -4.678,-1.439 V 4.026 Z m -10.416,78.117 c 16.782,0 22.334,-15.123 20.115,-19.564 -7.768,9.99 -31.354,10.961 -36.625,0.557 -7.212,-1.666 1.801,19.007 16.51,19.007 M 66.925,34.604 -23.946,125.475 c -5.818,5.816 -15.247,5.816 -21.065,0 l -90.871,-90.871 c -5.817,-5.817 -5.817,-15.246 0,-21.063 l 90.871,-90.871 c 5.818,-5.818 15.248,-5.818 21.065,0 l 90.871,90.871 c 5.817,5.817 5.817,15.246 0,21.063"
             style="fill:#005db9;fill-opacity:1;fill-rule:nonzero;stroke:none"
             id="path1443"
             inkscape:connector-curvature="0" /></g><g
           id="g1445"
           transform="translate(328.2568,310.9683)"><path
             d="m 0,0 c 0,5.691 -2.45,8.355 -7.632,8.355 h -3.285 V -8.352 h 1.583 C -1.844,-8.352 0,-6.334 0,0"
             style="fill:#005db9;fill-opacity:1;fill-rule:nonzero;stroke:none"
             id="path1447"
             inkscape:connector-curvature="0" /></g><g
           id="g1449"
           transform="translate(940.9639,361.7022)"><path
             d="M 0,0 -0.822,-4.505 H 3.873 L 4.746,0 Z M 16.221,0 H 9.926 L 9.104,-4.505 h 6.39 l -0.87,-4.599 H 8.183 L 6.391,-18.448 H 1.114 l 1.889,9.344 h -4.794 l -1.792,-9.344 h -5.132 l 1.84,9.344 h -6.489 l 0.873,4.599 h 6.535 L -5.035,0 h -6.586 l 1.018,4.695 h 6.535 l 1.696,8.715 H 2.711 L 1.066,4.695 h 4.696 l 1.646,8.715 h 5.181 L 10.944,4.695 h 6.294 z"
             style="fill:#231f20;fill-opacity:1;fill-rule:nonzero;stroke:none"
             id="path1451"
             inkscape:connector-curvature="0" /></g><g
           id="g1453"
           transform="translate(975.7158,342.4317)"><path
             d="M 0,0 C -8.327,0 -13.413,3.195 -13.413,12.685 V 32.78 h 7.7 V 12.977 c 0,-4.698 1.937,-6.539 5.858,-6.539 3.631,0 5.52,1.889 5.52,6.539 v 19.415 l 7.748,1.258 V 12.685 C 13.413,3.292 8.279,0 0,0"
             style="fill:#231f20;fill-opacity:1;fill-rule:nonzero;stroke:none"
             id="path1455"
             inkscape:connector-curvature="0" /></g><path
           d="m 996.377,375.211 h 7.941 v -31.958 h -7.941 z"
           style="fill:#231f20;fill-opacity:1;fill-rule:nonzero;stroke:none"
           id="path1457"
           inkscape:connector-curvature="0" /><g
           id="g1459"
           transform="translate(1023.1475,357.3926)"><path
             d="M 0,0 H -2.906 V -8.522 H 0 c 2.518,0 4.55,1.114 4.55,4.116 C 4.55,-1.599 2.807,0 0,0 M 0,12.2 H -2.906 V 4.502 h 2.614 c 2.373,0 3.924,1.259 3.924,3.921 C 3.632,11.088 2.081,12.2 0,12.2 M 2.469,-14.139 H -10.848 V 17.819 H 1.451 c 4.987,0 10.459,-1.792 10.459,-8.185 0,-3.68 -2.129,-6.342 -4.987,-6.972 3.34,-0.774 5.86,-3.487 5.86,-7.941 0,-5.276 -3.487,-8.86 -10.314,-8.86"
             style="fill:#231f20;fill-opacity:1;fill-rule:nonzero;stroke:none"
             id="path1461"
             inkscape:connector-curvature="0" /></g><path
           d="m 1037.273,343.254 h 26.193 v -4.261 h -26.193 z"
           style="fill:#231f20;fill-opacity:1;fill-rule:nonzero;stroke:none"
           id="path1463"
           inkscape:connector-curvature="0" /><g
           id="g1465"
           transform="translate(943.1924,295.0996)"><path
             d="m 0,0 c 0,3.099 -2.857,5.131 -10.943,5.131 -0.921,0 -1.744,-0.048 -2.421,-0.096 l 1.355,16.849 H 5.616 L 5.084,15.93 H -5.375 L -5.908,10.41 C -0.776,9.974 7.165,8.327 7.165,0.484 c 0,-8.133 -6.102,-11.136 -13.121,-11.136 -6.053,0 -9.441,2.081 -9.441,2.081 l 1.644,5.616 c 0,0 3.972,-1.743 7.264,-1.743 C -2.18,-4.698 0,-3.051 0,0"
             style="fill:#231f20;fill-opacity:1;fill-rule:nonzero;stroke:none"
             id="path1467"
             inkscape:connector-curvature="0" /></g><g
           id="g1469"
           transform="translate(962.8408,284.3994)"><path
             d="m 0,0 c -5.52,0 -8.763,1.744 -9.248,2.033 l 1.744,5.18 c 0.484,-0.338 3.532,-2.178 6.631,-2.178 1.792,0 2.713,0.822 2.713,2.081 0,3.244 -10.362,3.003 -10.362,10.363 0,4.938 4.358,7.068 9.636,7.068 5.569,0 8.28,-1.693 8.28,-1.693 L 7.553,17.672 c -0.048,0.048 -2.566,1.84 -6.004,1.84 -1.792,0 -2.711,-0.823 -2.711,-2.033 0,-1.307 1.548,-1.985 3.68,-2.858 C 6.876,12.928 9.152,11.718 9.152,7.068 9.152,2.759 5.713,0 0,0"
             style="fill:#231f20;fill-opacity:1;fill-rule:nonzero;stroke:none"
             id="path1471"
             inkscape:connector-curvature="0" /></g><g
           id="g1473"
           transform="translate(982.8779,299.1675)"><path
             d="M 0,0 H 6.73 C 6.73,3.34 5.761,4.888 3.68,4.888 1.5,4.888 0.193,3.195 0,0 m -0.097,-3.827 c 0,-3.243 1.549,-5.324 5.035,-5.324 3.922,0 6.924,1.695 6.924,1.743 l 2.081,-5.134 c 0,0 -4.309,-2.226 -10.214,-2.226 -8.28,0 -11.718,4.454 -11.718,12.299 0,8.327 5.132,12.248 11.959,12.248 7.408,0 9.829,-4.891 9.973,-10.941 l -0.774,-2.665 z"
             style="fill:#231f20;fill-opacity:1;fill-rule:nonzero;stroke:none"
             id="path1475"
             inkscape:connector-curvature="0" /></g><g
           id="g1477"
           transform="translate(1010.9502,304.251)"><path
             d="m 0,0 c -2.084,0 -3.003,-1.502 -3.003,-4.165 0,-2.662 0.968,-3.92 3.051,-3.92 2.13,0 3.003,1.306 3.003,3.92 C 3.051,-1.502 2.081,0 0,0 m 1.888,-20.577 h -5.52 c 0,0 -1.355,-0.533 -1.355,-2.569 0,-2.322 2.806,-2.71 5.084,-2.71 2.954,0 5.567,0.388 5.567,3.05 0,1.889 -1.259,2.229 -3.776,2.229 m -4.601,8.134 c -0.241,-0.147 -1.744,-0.777 -1.744,-1.889 0,-1.307 1.84,-1.357 3.343,-1.357 h 6.486 c 5.424,0 7.554,-2.952 7.554,-6.972 0,-6.002 -5.81,-7.989 -13.17,-7.989 -6.682,0 -11.136,1.743 -11.136,6.197 0,2.906 2.421,4.406 3.147,4.794 -0.242,0.049 -2.71,0.871 -2.71,3.439 0,2.566 1.695,4.211 3.776,5.373 -2.13,1.307 -3.584,3.632 -3.584,6.345 0,5.954 4.262,9.197 10.556,9.197 3.049,0 5.133,-0.87 5.471,-1.015 L 13.41,4.794 12.78,0.338 9.248,0.048 c 0.241,-0.388 1.16,-2.18 1.16,-4.02 0,-6.778 -5.036,-8.811 -10.119,-8.811 -1.451,0 -2.759,0.243 -3.002,0.34"
             style="fill:#231f20;fill-opacity:1;fill-rule:nonzero;stroke:none"
             id="path1479"
             inkscape:connector-curvature="0" /></g><g
           id="g1481"
           transform="translate(1027.3066,285.1739)"><path
             d="m 0,0 v 32.586 l 7.891,1.26 V 0 Z"
             style="fill:#231f20;fill-opacity:1;fill-rule:nonzero;stroke:none"
             id="path1483"
             inkscape:connector-curvature="0" /></g><g
           id="g1485"
           transform="translate(1047.2471,299.1675)"><path
             d="M 0,0 H 6.73 C 6.73,3.34 5.762,4.888 3.681,4.888 1.5,4.888 0.193,3.195 0,0 m -0.097,-3.827 c 0,-3.243 1.549,-5.324 5.036,-5.324 3.921,0 6.923,1.695 6.923,1.743 l 2.081,-5.134 c 0,0 -4.309,-2.226 -10.214,-2.226 -8.279,0 -11.718,4.454 -11.718,12.299 0,8.327 5.132,12.248 11.959,12.248 7.408,0 9.829,-4.891 9.973,-10.941 L 13.17,-3.827 Z"
             style="fill:#231f20;fill-opacity:1;fill-rule:nonzero;stroke:none"
             id="path1487"
             inkscape:connector-curvature="0" /></g><g
           id="g1489"
           transform="translate(1072.9971,284.3994)"><path
             d="m 0,0 c -5.52,0 -8.764,1.744 -9.248,2.033 l 1.743,5.18 c 0.485,-0.338 3.533,-2.178 6.632,-2.178 1.792,0 2.713,0.822 2.713,2.081 0,3.244 -10.362,3.003 -10.362,10.363 0,4.938 4.357,7.068 9.636,7.068 5.569,0 8.279,-1.693 8.279,-1.693 l -1.84,-5.182 c -0.048,0.048 -2.566,1.84 -6.005,1.84 -1.792,0 -2.71,-0.823 -2.71,-2.033 0,-1.307 1.548,-1.985 3.68,-2.858 C 6.875,12.928 9.151,11.718 9.151,7.068 9.151,2.759 5.713,0 0,0"
             style="fill:#231f20;fill-opacity:1;fill-rule:nonzero;stroke:none"
             id="path1491"
             inkscape:connector-curvature="0" /></g><path
           d="m 1083.786,285.174 h 26.193 v -4.261 h -26.193 z"
           style="fill:#231f20;fill-opacity:1;fill-rule:nonzero;stroke:none"
           id="path1493"
           inkscape:connector-curvature="0" /><g
           id="g1495"
           transform="translate(949.9687,235.5674)"><path
             d="M 0,0 V -8.474 H -6.68 V 0 h -15.156 v 5.616 l 12.687,19.852 4.987,-2.18 -10.751,-17.819 h 8.281 v 6.053 L 0,12.829 V 5.52 H 4.457 L 3.584,0 Z"
             style="fill:#231f20;fill-opacity:1;fill-rule:nonzero;stroke:none"
             id="path1497"
             inkscape:connector-curvature="0" /></g><g
           id="g1499"
           transform="translate(965.5977,243.0235)"><path
             d="m 0,0 c 0.048,-5.182 0.773,-10.702 6.197,-10.702 5.616,0 6.15,6.149 6.15,10.702 0,5.035 -0.726,10.7 -6.15,10.7 C 0.629,10.7 0,4.454 0,0 m 19.562,-0.291 c 0,-9.49 -3.439,-16.365 -13.268,-16.365 -9.878,0 -13.507,6.971 -13.507,16.656 0,9.538 3.532,16.657 13.507,16.657 10.169,0 13.268,-7.263 13.268,-16.948"
             style="fill:#231f20;fill-opacity:1;fill-rule:nonzero;stroke:none"
             id="path1501"
             inkscape:connector-curvature="0" /></g><g
           id="g1503"
           transform="translate(1001.2676,236.9707)"><path
             d="m 0,0 c -4.938,-0.048 -5.421,-2.614 -5.421,-3.824 0,-1.308 0.533,-2.229 1.984,-2.229 2.082,0 3.437,2.132 3.437,2.132 z m 1.744,-9.877 -0.871,2.372 c 0,0 -1.984,-3.146 -7.022,-3.146 -4.066,0 -6.536,2.273 -6.536,6.002 0,2.325 0.581,8.425 12.685,8.425 v 1.937 c 0,2.084 -1.5,2.713 -3.728,2.713 -3.195,0 -6.246,-1.891 -6.246,-1.891 l -1.984,4.794 c 0.192,0.195 3.872,2.567 10.169,2.567 6.099,0 9.634,-2.856 9.634,-8.086 V -9.877 Z"
             style="fill:#231f20;fill-opacity:1;fill-rule:nonzero;stroke:none"
             id="path1505"
             inkscape:connector-curvature="0" /></g><g
           id="g1507"
           transform="translate(1028.8574,227.0938)"><path
             d="m 0,0 v 14.815 c 0,2.278 -0.726,3.341 -2.47,3.341 -2.129,0 -3.776,-2.373 -3.727,-2.422 V 0 h -7.891 v 22.514 l 6.197,1.258 1.208,-2.662 c 0,0.048 2.618,2.662 6.731,2.662 3.973,0 7.845,-1.839 7.845,-7.552 L 7.893,0 Z"
             style="fill:#231f20;fill-opacity:1;fill-rule:nonzero;stroke:none"
             id="path1509"
             inkscape:connector-curvature="0" /></g><g
           id="g1511"
           transform="translate(1055.2363,227.8194)"><path
             d="m 0,0 c -1.743,-4.794 -4.745,-8.522 -7.989,-12.299 l -5.956,4.261 c 3.727,4.02 5.227,6.149 7.068,10.507 l -8.376,19.319 7.408,1.259 4.551,-13.025 3.825,12.347 H 8.23 Z"
             style="fill:#231f20;fill-opacity:1;fill-rule:nonzero;stroke:none"
             id="path1513"
             inkscape:connector-curvature="0" /></g><g
           id="g1515"
           transform="translate(1074.0127,226.3194)"><path
             d="m 0,0 c -5.521,0 -8.764,1.743 -9.249,2.033 l 1.744,5.18 c 0.484,-0.338 3.532,-2.178 6.632,-2.178 1.791,0 2.713,0.822 2.713,2.081 0,3.243 -10.362,3.002 -10.362,10.363 0,4.938 4.357,7.068 9.635,7.068 5.569,0 8.28,-1.693 8.28,-1.693 l -1.84,-5.182 c -0.049,0.048 -2.567,1.84 -6.005,1.84 -1.792,0 -2.711,-0.823 -2.711,-2.033 0,-1.307 1.549,-1.985 3.681,-2.858 C 6.875,12.928 9.151,11.718 9.151,7.068 9.151,2.759 5.712,0 0,0"
             style="fill:#231f20;fill-opacity:1;fill-rule:nonzero;stroke:none"
             id="path1517"
             inkscape:connector-curvature="0" /></g></g></g></g></svg>